{
    "token": "EJ71BTun5iGl15jzw9OxlP9w",
    "team_id": "TA26N8UMQ",
    "api_app_id": "ABGL2NKAS",
    "event": {
        "type": "message",
        "user": "UBGQZFAN8",
        "text": "user UA382JLVD sent msg 'resf' to channel CA26NH7D0",
        "bot_id": "BBGQZFAMA",
        "ts": "1530441629.000035",
        "channel": "CA26NH7D0",
        "event_ts": "1530441629.000035",
        "channel_type": "channel"
    },
    "type": "event_callback",
    "event_id": "EvBGR0KMT6",
    "event_time": 1530441629,
    "authed_users": [
        "UBGQZFAN8"
    ]
}
