{
    "token": "EJ71BTun5iGl15jzw9OxlP9w",
    "team_id": "TA26N8UMQ",
    "api_app_id": "ABGL2NKAS",
    "event": {
        "type": "message",
        "user": "UA382JLVD",
        "text": "okay cool it's working yay!",
        "client_msg_id": "95f73d10-72e1-42ac-9c37-f62c3e4d49a1",
        "ts": "1530248136.000165",
        "channel": "CA26NH7D0",
        "event_ts": "1530248136.000165",
        "channel_type": "channel"
    },
    "type": "event_callback",
    "event_id": "EvBG59RXK4",
    "event_time": 1530248136,
    "authed_users": [
        "UA382JLVD"
    ]
}
